<?xml version="1.0" encoding="utf-8"?>
<!-- Generator: Adobe Illustrator 16.0.0, SVG Export Plug-In . SVG Version: 6.00 Build 0)  -->
<!DOCTYPE svg PUBLIC "-//W3C//DTD SVG 1.1//EN" "http://www.w3.org/Graphics/SVG/1.1/DTD/svg11.dtd">
<svg version="1.1" id="Vrstva_1" xmlns="http://www.w3.org/2000/svg" xmlns:xlink="http://www.w3.org/1999/xlink" x="0px" y="0px"
	 width="100px" height="30px" viewBox="0 0 100 30" enable-background="new 0 0 100 30" xml:space="preserve">
<g>
	<rect x="44.372" y="4.137" fill="#1D1D1B" width="2.921" height="16.552"/>
	<path fill="#1D1D1B" d="M54.595,8.031c-3.495,0-6.329,2.833-6.329,6.328s2.833,6.329,6.329,6.329s6.329-2.834,6.329-6.329
		S58.09,8.031,54.595,8.031z M54.595,18.147c-2.092,0-3.788-1.695-3.788-3.788c0-2.092,1.696-3.789,3.788-3.789
		s3.789,1.697,3.789,3.789C58.384,16.452,56.687,18.147,54.595,18.147z"/>
	<path fill="#1D1D1B" d="M34.716,13.5V4.137h-2.92v16.552h2.92v-3.833c1.143,2.078,4.424,3.354,8.281,4.042v-2.868
		c-3.17-0.66-5.765-1.299-5.765-2.846c0-1.548,2.585-2.241,5.765-2.856V9.458C39.131,10.083,35.857,11.403,34.716,13.5z"/>
	<path fill="#1D1D1B" d="M87.211,4.137h-4.868h-2.921v2.921v4.145v2.67v1.46c0,0.806-0.653,1.46-1.461,1.46
		c-0.191,0-0.375-0.038-0.543-0.105l-0.002,0.002l-0.017-0.009c-0.001-0.001-0.003-0.002-0.004-0.002l-0.213-0.112
		c-0.001-0.001-0.001-0.002-0.003-0.002l-2.672-1.41l-3.918-2.067c0.019-0.062,0.035-0.125,0.048-0.189h2.456
		c2.419,0,4.381-1.961,4.381-4.381s-1.962-4.381-4.381-4.381h-8.276h-2.921v10.502h2.921V7.058h4.146h4.131
		c0.807,0,1.46,0.654,1.46,1.46c0,0.806-0.653,1.46-1.46,1.46h-4.131h-0.711c-1.344,0-2.434,1.09-2.434,2.434
		c0,1.002,0.606,1.863,1.473,2.236l8.414,4.441c0.659,0.396,1.432,0.625,2.256,0.625c0.513,0,1.004-0.089,1.461-0.251l0,0
		c0.001,0,0.003,0,0.003-0.001c0.044-0.015,0.086-0.031,0.128-0.048c0.016-0.006,0.031-0.012,0.047-0.019
		c0.041-0.016,0.082-0.033,0.123-0.051c0.014-0.007,0.026-0.013,0.041-0.019c0.135-0.062,0.266-0.129,0.392-0.202
		c0.012-0.007,0.022-0.013,0.033-0.02c0.038-0.021,0.075-0.045,0.112-0.068c0.015-0.01,0.03-0.02,0.045-0.028
		c0.035-0.024,0.071-0.048,0.106-0.072c0.014-0.009,0.025-0.018,0.039-0.027c0.113-0.08,0.224-0.166,0.329-0.257
		c0.016-0.015,0.031-0.027,0.048-0.041c0.028-0.026,0.058-0.053,0.086-0.079c0.017-0.016,0.034-0.032,0.051-0.049
		c0.027-0.026,0.055-0.053,0.081-0.079c0.017-0.018,0.032-0.035,0.049-0.052c0.046-0.049,0.091-0.098,0.135-0.147
		c0.018-0.021,0.036-0.041,0.053-0.062c0.021-0.025,0.043-0.052,0.064-0.078c0.019-0.023,0.037-0.047,0.055-0.07
		c0.02-0.025,0.04-0.053,0.059-0.079c0.019-0.025,0.038-0.051,0.057-0.077c0.017-0.025,0.035-0.051,0.052-0.077
		c0.026-0.038,0.051-0.077,0.076-0.117c0.018-0.03,0.036-0.061,0.055-0.091c0.02-0.035,0.041-0.07,0.06-0.105
		c0.014-0.024,0.026-0.049,0.039-0.073c0.018-0.033,0.035-0.066,0.052-0.1c0.012-0.024,0.023-0.049,0.036-0.073
		c0.018-0.038,0.034-0.076,0.051-0.114c0.01-0.021,0.019-0.042,0.027-0.062c0.024-0.058,0.047-0.115,0.068-0.175
		c0.007-0.019,0.014-0.036,0.02-0.055c0.015-0.044,0.03-0.087,0.045-0.132c0.007-0.022,0.014-0.046,0.021-0.068
		c0.013-0.042,0.024-0.083,0.036-0.125c0.006-0.023,0.012-0.046,0.018-0.068c0.013-0.051,0.024-0.103,0.036-0.154
		c0.003-0.013,0.005-0.025,0.008-0.038c0.013-0.064,0.024-0.129,0.035-0.194c0.003-0.02,0.005-0.038,0.008-0.057
		c0.007-0.048,0.014-0.097,0.019-0.145c0.002-0.022,0.004-0.046,0.007-0.069c0.004-0.047,0.008-0.095,0.011-0.143
		c0.001-0.021,0.003-0.042,0.004-0.063c0.003-0.068,0.005-0.136,0.005-0.205v-1.46V7.058h4.868c2.688,0,4.868,2.498,4.868,5.355
		s-2.18,5.355-4.868,5.355H84.29v2.921h2.921c4.302,0,7.789-3.706,7.789-8.276C95,7.841,91.513,4.137,87.211,4.137z"/>
	<path fill="#1D1D1B" d="M27.892,10.158c0,0.002,0,0.004,0,0.006c0,3.145-1.016,6.052-2.738,8.412
		c-1.721-2.359-2.738-5.267-2.738-8.412c0-0.002,0-0.004,0-0.006h-2.921c0,0.002,0,0.004,0,0.006c0,4.008,1.37,7.695,3.667,10.62
		c-1.405,1.266-3.062,2.256-4.887,2.888v3.061c7.234-2.037,12.537-8.683,12.537-16.568c0-0.002,0-0.004,0-0.006H27.892z"/>
	<path fill="#1D1D1B" d="M20.233,17.939c-0.492-1.055-0.911-2.149-1.251-3.278c-0.962,1.906-2.938,3.215-5.22,3.215
		c-3.228,0-5.845-2.617-5.845-5.845c0-3.229,2.617-5.846,5.845-5.846c1.102,0,2.131,0.306,3.011,0.835l1.502-2.5
		c-1.318-0.794-2.862-1.252-4.513-1.252C8.923,3.268,5,7.191,5,12.031c0,4.838,3.923,8.762,8.762,8.762
		C16.326,20.793,18.631,19.692,20.233,17.939z"/>
</g>
</svg>
