<?xml version="1.0" encoding="utf-8"?>
<!-- Generator: Adobe Illustrator 16.0.0, SVG Export Plug-In . SVG Version: 6.00 Build 0)  -->
<!DOCTYPE svg PUBLIC "-//W3C//DTD SVG 1.1//EN" "http://www.w3.org/Graphics/SVG/1.1/DTD/svg11.dtd">
<svg version="1.1" id="Vrstva_1" xmlns="http://www.w3.org/2000/svg" xmlns:xlink="http://www.w3.org/1999/xlink" x="0px" y="0px"
	 width="55px" height="55px" viewBox="0 0 55 55" enable-background="new 0 0 55 55" xml:space="preserve">
<path fill="#FFFFFF" d="M43.633,13.769h-8.061c-0.944-4.225-4.223-6.337-8.151-6.337c-3.926,0-7.204,2.112-8.149,6.337h-8.068
	L4.443,30.67h4.551l3.635-9.09l5.333,13.315H2.149v2.111c0,5.824,4.739,10.562,10.562,10.562c5.824,0,10.563-4.738,10.563-10.562
	V36.6l-7.526-18.606h3.523c0.945,4.226,4.223,6.338,8.149,6.338c3.928,0,7.207-2.112,8.151-6.338h3.258L33.759,30.67h4.552
	l3.767-9.418l5.461,13.643H31.725v2.111c0,5.824,4.739,10.562,10.562,10.562c5.824,0,10.563-4.738,10.563-10.562V36.6L43.633,13.769
	z M12.634,43.344c-2.754,0-5.104-2.111-5.975-4.225H18.61C17.738,41.232,15.39,43.344,12.634,43.344 M27.421,20.106
	c-2.329,0-4.225-1.894-4.225-4.225c0-2.327,1.896-4.225,4.225-4.225c2.332,0,4.225,1.898,4.225,4.225
	C31.646,18.212,29.753,20.106,27.421,20.106 M42.209,43.344c-2.754,0-5.104-2.111-5.975-4.225h11.951
	C47.313,41.232,44.966,43.344,42.209,43.344"/>
</svg>
