<?xml version="1.0" encoding="utf-8"?>
<!-- Generator: Adobe Illustrator 16.0.0, SVG Export Plug-In . SVG Version: 6.00 Build 0)  -->
<!DOCTYPE svg PUBLIC "-//W3C//DTD SVG 1.1//EN" "http://www.w3.org/Graphics/SVG/1.1/DTD/svg11.dtd">
<svg version="1.1" id="Vrstva_1" xmlns="http://www.w3.org/2000/svg" xmlns:xlink="http://www.w3.org/1999/xlink" x="0px" y="0px"
	 width="55px" height="55px" viewBox="0 0 55 55" enable-background="new 0 0 55 55" xml:space="preserve">
<g>
	<path fill="#FFFFFF" d="M27.5,9.659c-14.359,0-25.188,5.415-25.188,12.594v10.494c0,7.181,10.829,12.594,25.188,12.594
		s25.187-5.413,25.187-12.594V22.253C52.688,15.074,41.859,9.659,27.5,9.659 M27.422,13.857c12.013,0,20.99,4.431,20.99,8.396
		c0,3.964-8.977,8.396-20.99,8.396c-12.012,0-20.989-4.432-20.989-8.396C6.433,18.288,15.411,13.857,27.422,13.857 M42.193,38.552
		v-3.706h-4.199v5.069c-2.098,0.621-6.297,1.048-8.395,1.181v-4.15h-4.198v4.15c-4.198-0.133-6.297-0.56-8.396-1.181v-5.069h-4.198
		v3.706c-4.198-1.619-6.297-3.771-6.297-5.805v-3.345c4.198,3.333,12.024,5.443,20.99,5.443c8.966,0,16.791-2.11,20.99-5.443v3.345
		C48.49,34.78,46.391,36.933,42.193,38.552"/>
	<path fill="#FFFFFF" d="M27.422,20.153c4.931,0,8.417,1.775,10.197,2.954l3.021-3.021c-2.133-1.56-6.637-4.13-13.218-4.13
		c-6.705,0-11.132,2.548-13.227,4.12l3.013,3.013C19.004,21.851,22.372,20.153,27.422,20.153"/>
</g>
</svg>
