<?xml version="1.0" encoding="utf-8"?>
<!-- Generator: Adobe Illustrator 16.0.0, SVG Export Plug-In . SVG Version: 6.00 Build 0)  -->
<!DOCTYPE svg PUBLIC "-//W3C//DTD SVG 1.1//EN" "http://www.w3.org/Graphics/SVG/1.1/DTD/svg11.dtd">
<svg version="1.1" id="Vrstva_1" xmlns="http://www.w3.org/2000/svg" xmlns:xlink="http://www.w3.org/1999/xlink" x="0px" y="0px"
	 width="190px" height="66px" viewBox="0 0 190 66" enable-background="new 0 0 190 66" xml:space="preserve">
<g>
	<g>
		<path fill="#EA5B0C" d="M96.594,34.331c0.018-0.261,0.073-0.557,0.168-0.889c0.095-0.331,0.258-0.645,0.491-0.941
			c0.231-0.296,0.542-0.544,0.929-0.744c0.388-0.201,0.874-0.301,1.46-0.301c0.896,0,1.562,0.244,2.001,0.732
			c0.439,0.487,0.745,1.201,0.917,2.143H96.594L96.594,34.331z M105.025,30.952c-0.566-0.782-1.299-1.414-2.178-1.877
			c-0.881-0.464-1.925-0.699-3.103-0.699c-1.051,0-2.023,0.192-2.892,0.572c-0.865,0.38-1.622,0.907-2.248,1.568
			c-0.625,0.66-1.115,1.453-1.453,2.355c-0.338,0.899-0.509,1.883-0.509,2.923c0,1.074,0.167,2.074,0.495,2.973
			c0.33,0.903,0.806,1.691,1.414,2.344c0.61,0.654,1.365,1.166,2.244,1.521c0.875,0.352,1.866,0.53,2.948,0.53
			c1.564,0,2.92-0.368,4.03-1.093c1.119-0.731,1.957-1.953,2.492-3.631l0.118-0.373h-3.835l-0.06,0.207
			c-0.102,0.354-0.395,0.703-0.871,1.039c-0.482,0.34-1.069,0.512-1.746,0.512c-0.951,0-1.683-0.245-2.176-0.728
			c-0.449-0.44-0.717-1.153-0.799-2.121h9.596l0.017-0.267c0.071-1.071-0.019-2.113-0.266-3.096
			C105.997,32.622,105.587,31.728,105.025,30.952L105.025,30.952z M119.678,30.108c-0.365-0.513-0.869-0.917-1.498-1.203
			c-0.619-0.281-1.411-0.424-2.356-0.424c-0.762,0-1.516,0.188-2.24,0.559c-0.468,0.238-0.884,0.572-1.241,0.992v-0.855V28.84
			h-0.337h-3.203h-0.337v0.337v13.127v0.336h0.337h3.364h0.337v-0.336v-6.881c0-1.26,0.187-2.164,0.556-2.688
			c0.348-0.492,0.91-0.732,1.721-0.732c0.686,0,1.143,0.207,1.396,0.635c0.284,0.479,0.428,1.236,0.428,2.253v7.413v0.336h0.337
			h3.364h0.337v-0.336v-8.076c0-0.832-0.07-1.602-0.208-2.289C120.29,31.227,120.035,30.61,119.678,30.108L119.678,30.108z
			 M141.302,37.327c-0.093,0.466-0.253,0.89-0.475,1.258c-0.212,0.354-0.503,0.64-0.863,0.851c-0.356,0.208-0.812,0.314-1.353,0.314
			c-0.54,0-0.99-0.105-1.338-0.313c-0.353-0.211-0.64-0.497-0.853-0.852c-0.223-0.368-0.382-0.792-0.475-1.258
			c-0.096-0.482-0.145-0.985-0.145-1.495c0-0.509,0.049-1.017,0.146-1.508c0.092-0.474,0.251-0.896,0.472-1.255
			c0.214-0.348,0.503-0.637,0.859-0.856c0.347-0.215,0.796-0.323,1.333-0.323c0.539,0,0.992,0.109,1.349,0.324
			c0.362,0.221,0.655,0.508,0.869,0.855c0.221,0.359,0.38,0.781,0.472,1.255c0.097,0.493,0.146,1,0.146,1.508
			S141.397,36.843,141.302,37.327L141.302,37.327z M143.761,30.483c-0.617-0.641-1.372-1.145-2.243-1.496
			c-0.867-0.35-1.845-0.526-2.906-0.526c-1.062,0-2.036,0.177-2.895,0.527c-0.862,0.352-1.612,0.854-2.229,1.495
			c-0.616,0.641-1.099,1.426-1.433,2.334c-0.33,0.9-0.498,1.915-0.498,3.015c0,1.101,0.168,2.11,0.499,3.003
			c0.333,0.898,0.815,1.679,1.432,2.319c0.618,0.642,1.369,1.142,2.232,1.483c0.858,0.341,1.831,0.514,2.892,0.514
			s2.037-0.173,2.903-0.513c0.872-0.343,1.628-0.842,2.246-1.484c0.616-0.641,1.099-1.421,1.432-2.319
			c0.331-0.893,0.499-1.903,0.499-3.003s-0.168-2.114-0.498-3.015C144.859,31.909,144.378,31.124,143.761,30.483L143.761,30.483z
			 M89.394,28.948v-3.621v-0.278h-0.278h-3.572h-0.278v0.278v3.621h-1.887H83.1v0.279v2.389v0.279h0.278h1.887v7.403
			c0,0.698,0.121,1.276,0.36,1.719c0.241,0.447,0.577,0.797,0.998,1.041c0.405,0.234,0.879,0.394,1.406,0.475
			c0.507,0.077,1.05,0.116,1.615,0.116c0.354,0,0.722-0.009,1.096-0.026c0.38-0.019,0.73-0.055,1.041-0.109l0.23-0.04v-0.234v-2.766
			v-0.34L91.68,39.2c-0.159,0.032-0.328,0.057-0.5,0.071c-0.176,0.017-0.362,0.024-0.554,0.024c-0.688,0-0.93-0.139-1.012-0.221
			c-0.083-0.082-0.221-0.323-0.221-1.012v-6.168h2.341h0.277v-0.279v-2.389v-0.279h-0.277H89.394L89.394,28.948z M130.48,28.45
			c-0.48,0-0.95,0.074-1.396,0.219c-0.441,0.145-0.863,0.351-1.252,0.612c-0.391,0.263-0.742,0.583-1.043,0.954
			c-0.08,0.099-0.156,0.201-0.228,0.305v-1.451V28.81h-0.28h-3.401h-0.28v0.279v13.278v0.28h0.28h3.572h0.28v-0.28v-5.984
			c0-0.575,0.057-1.116,0.169-1.606c0.108-0.476,0.292-0.895,0.546-1.248c0.248-0.346,0.582-0.623,0.991-0.824
			c0.413-0.202,0.931-0.305,1.538-0.305c0.206,0,0.424,0.012,0.65,0.037c0.224,0.023,0.419,0.053,0.578,0.086l0.336,0.067v-0.343
			v-3.389v-0.209l-0.199-0.059C131.031,28.497,130.741,28.45,130.48,28.45L130.48,28.45z M154.722,28.948h-2.341v-3.621v-0.278
			h-0.277h-3.572h-0.279v0.278v3.621h-1.887h-0.278v0.279v2.389v0.279h0.278h1.887v7.403c0,0.698,0.121,1.276,0.36,1.719
			c0.242,0.447,0.577,0.797,0.998,1.041c0.405,0.234,0.879,0.394,1.406,0.475c0.507,0.077,1.051,0.116,1.614,0.116
			c0.354,0,0.723-0.009,1.096-0.026c0.381-0.019,0.731-0.055,1.042-0.109l0.231-0.04v-0.234v-2.766v-0.34l-0.333,0.066
			c-0.159,0.032-0.327,0.057-0.499,0.071c-0.177,0.017-0.363,0.024-0.555,0.024c-0.688,0-0.93-0.139-1.011-0.221
			c-0.083-0.082-0.222-0.323-0.222-1.012v-6.168h2.341H155v-0.279v-2.389v-0.279H154.722L154.722,28.948z M81.498,35.569
			c-0.416-0.298-0.89-0.537-1.422-0.717c-0.533-0.181-1.079-0.334-1.639-0.46c-0.542-0.127-1.074-0.243-1.598-0.353
			c-0.523-0.107-0.988-0.229-1.395-0.365c-0.406-0.135-0.736-0.311-0.988-0.527c-0.253-0.216-0.379-0.496-0.379-0.838
			c0-0.289,0.071-0.52,0.216-0.69c0.144-0.171,0.319-0.302,0.527-0.393c0.208-0.09,0.437-0.149,0.689-0.176s0.487-0.04,0.704-0.04
			c0.685,0,1.279,0.129,1.785,0.39c0.504,0.261,0.783,0.759,0.838,1.493h3.645c-0.072-0.865-0.293-1.581-0.663-2.149
			c-0.369-0.567-0.834-1.023-1.393-1.366c-0.559-0.342-1.193-0.586-1.905-0.729c-0.713-0.145-1.447-0.217-2.203-0.217
			c-0.758,0-1.496,0.067-2.218,0.203c-0.721,0.136-1.369,0.37-1.946,0.703c-0.576,0.334-1.041,0.789-1.393,1.366
			s-0.527,1.316-0.527,2.219c0,0.612,0.127,1.131,0.379,1.555c0.253,0.424,0.588,0.775,1.003,1.056
			c0.415,0.279,0.889,0.505,1.421,0.676c0.533,0.171,1.079,0.32,1.639,0.446c1.373,0.288,2.441,0.577,3.209,0.866
			c0.768,0.288,1.151,0.721,1.151,1.298c0,0.343-0.081,0.627-0.244,0.852c-0.163,0.226-0.366,0.406-0.61,0.542
			c-0.244,0.135-0.516,0.234-0.814,0.297c-0.298,0.063-0.583,0.095-0.854,0.095c-0.38,0-0.746-0.045-1.099-0.136
			c-0.353-0.09-0.665-0.229-0.937-0.419c-0.271-0.189-0.492-0.434-0.664-0.731s-0.258-0.654-0.258-1.069h-3.645
			c0.037,0.94,0.248,1.723,0.637,2.346c0.388,0.624,0.885,1.126,1.488,1.506c0.604,0.38,1.295,0.65,2.071,0.813
			c0.775,0.163,1.569,0.244,2.382,0.244c0.794,0,1.574-0.077,2.342-0.229c0.767-0.154,1.447-0.42,2.043-0.799
			s1.078-0.879,1.448-1.502c0.37-0.622,0.556-1.393,0.556-2.312c0-0.649-0.127-1.195-0.379-1.637
			C82.247,36.236,81.913,35.866,81.498,35.569L81.498,35.569z M59.64,27.942h0.037c1.427,0,2.478-1.164,2.478-2.552
			c0-1.464-1.051-2.552-2.478-2.552c-1.464,0-2.589,1.088-2.589,2.552C57.088,26.778,58.213,27.942,59.64,27.942L59.64,27.942z
			 M66.331,27.942h0.038c1.426,0,2.477-1.164,2.477-2.552c0-1.464-1.051-2.552-2.477-2.552c-1.464,0-2.59,1.088-2.59,2.552
			C63.779,26.778,64.905,27.942,66.331,27.942L66.331,27.942z M65.609,28.813h-0.487v0.488v8.111c0,0.85-0.16,1.465-0.476,1.828
			c-0.297,0.343-0.897,0.517-1.783,0.517c-0.52,0-0.928-0.067-1.214-0.201c-0.278-0.129-0.494-0.294-0.644-0.491
			c-0.152-0.202-0.25-0.431-0.299-0.697c-0.056-0.311-0.084-0.632-0.084-0.955v-8.111v-0.488h-0.488h-2.918h-0.488v0.488v8.111
			c0,1.918,0.554,3.37,1.646,4.314c1.071,0.928,2.581,1.397,4.489,1.397c1.881,0,3.388-0.473,4.477-1.404
			c1.112-0.952,1.676-2.401,1.676-4.308v-8.111v-0.488h-0.488H65.609L65.609,28.813z M51.743,28.806H51.57l-0.044,0.168
			l-2.182,8.303l-2.02-8.299l-0.042-0.172h-0.176h-3.459h-0.178l-0.04,0.172l-1.972,8.315l-2.18-8.319l-0.044-0.168h-0.173h-3.76H35
			l0.089,0.29l4.11,13.386l0.049,0.158h0.165h3.685h0.176l0.041-0.171l2.018-8.217l2.109,8.22l0.043,0.168h0.174h3.659h0.166
			l0.048-0.158l4.086-13.387l0.088-0.289h-0.303H51.743L51.743,28.806z"/>
	</g>
</g>
</svg>
