<?xml version="1.0" encoding="utf-8"?>
<!-- Generator: Adobe Illustrator 16.0.0, SVG Export Plug-In . SVG Version: 6.00 Build 0)  -->
<!DOCTYPE svg PUBLIC "-//W3C//DTD SVG 1.1//EN" "http://www.w3.org/Graphics/SVG/1.1/DTD/svg11.dtd">
<svg version="1.1" id="Vrstva_1" xmlns="http://www.w3.org/2000/svg" xmlns:xlink="http://www.w3.org/1999/xlink" x="0px" y="0px"
	 width="190px" height="66px" viewBox="0 0 190 66" enable-background="new 0 0 190 66" xml:space="preserve">
<g>
	<polygon fill="#060E9F" points="136.018,36.987 136.018,34.046 132.335,34.046 132.335,18.536 122.914,18.536 122.914,36.987 
		136.018,36.987 136.018,36.987 	"/>
	<path fill="#060E9F" d="M141.269,34.048l-0.625,2.939h-2.916l3.951-18.452h9.368L155,36.987h-7.373h-2.094l-0.796-2.939H141.269
		L141.269,34.048L141.269,34.048z M144.062,31.108l-1.107-4.937l-1.084,4.937H144.062L144.062,31.108L144.062,31.108z"/>
	<polygon fill="#060E9F" points="100.683,36.987 100.683,34.046 96.298,34.046 96.298,29.157 100.683,29.157 100.683,26.267 
		96.322,26.267 96.322,21.475 100.683,21.475 100.683,18.536 86.931,18.536 86.931,21.475 86.931,36.987 100.683,36.987 
		100.683,36.987 	"/>
	<path fill="#060E9F" d="M109.064,31.542c0.169,0.266,0.265,0.577,0.265,0.915c0,0.869-0.724,1.591-1.59,1.591h-0.312h-2.578v2.938
		h7.756c6.238-0.023,8.263-4.744,6.047-8.383l-3.687-4.622c-0.167-0.266-0.265-0.556-0.265-0.893c0-0.892,0.697-1.613,1.589-1.613
		h0.314h2.602l-0.023-2.939h-7.756c-6.24,0-8.264,4.77-6.048,8.382L109.064,31.542L109.064,31.542L109.064,31.542z"/>
	<polygon fill="#060E9F" points="67.675,18.483 84.295,18.483 84.295,21.252 80.597,21.252 80.597,36.952 71.357,36.952 
		71.357,21.252 67.675,21.252 67.675,18.483 67.675,18.483 	"/>
	<path fill-rule="evenodd" clip-rule="evenodd" fill="#060E9F" d="M49.458,19.575c-7.389,0.032-13.365,6.018-13.365,13.375
		c0,3.445,1.438,6.562,3.101,8.546l0.023,0.049c0.973-0.049,2.089-0.241,2.731-0.442c0.69-0.225,1.39-0.642,1.39-0.642
		c0.867-0.547,1.566-1.294,2.008-2.21c0,0,0.202-0.345,0.37-0.763c0.152-0.426,0.426-1.294,0.521-2.081l0.249-1.341
		c0,0,0.796-5.446,0.924-6.241c0.41-2.498,1.535-2.764,2.048-2.771l-0.408-1.936l-2.065,0.643l1.614-1.438l-1.614-1.462l2.065,0.676
		L49.458,19.575L49.458,19.575z M49.531,25.054c0.53,0.008,1.654,0.273,2.072,2.771c0.12,0.795,0.893,6.241,0.893,6.241l0.272,1.341
		c0.096,0.787,0.369,1.655,0.522,2.081c0.176,0.418,0.345,0.763,0.345,0.763c0.475,0.916,1.165,1.663,2.041,2.21
		c0,0,0.691,0.417,1.39,0.642c0.643,0.201,1.759,0.394,2.723,0.442l0.032-0.049c1.936-2.305,3.101-5.302,3.101-8.546
		c0-7.375-6-13.367-13.398-13.375l0.441,1.961l2.057-0.676l-1.606,1.462l1.606,1.438l-2.057-0.643L49.531,25.054L49.531,25.054z
		 M57.283,43.875c-0.595-0.241-1.165-0.563-1.688-0.941c-1.213-0.891-2.161-2.08-2.779-3.438c0-0.023-0.024-0.08-0.024-0.104
		c-0.368-0.787-0.666-1.879-0.795-2.771l-0.225-1.39l-0.49-3.519c-0.104-0.892-0.377-2.008-0.498-2.522
		c-0.249-1.044-0.642-1.413-1.293-1.413c-0.619,0-1.021,0.369-1.262,1.413c-0.129,0.515-0.4,1.631-0.498,2.522l-0.498,3.519
		l-0.225,1.39c-0.12,0.892-0.418,1.983-0.795,2.771c0,0.024-0.024,0.081-0.024,0.104c-0.618,1.357-1.582,2.547-2.779,3.438
		c-0.522,0.378-1.068,0.7-1.663,0.941c2.185,1.565,4.868,2.481,7.768,2.481c2.884,0,5.534-0.916,7.72-2.481H57.283L57.283,43.875z
		 M35,32.95c0-7.977,6.498-14.467,14.515-14.467c7.993,0,14.499,6.49,14.499,14.467c0,8.009-6.506,14.474-14.499,14.474
		C41.498,47.424,35,40.959,35,32.95"/>
	<polygon fill="#060E9F" points="71.257,42.467 72.359,42.467 72.359,47.446 71.257,47.446 71.257,42.467 	"/>
	<polygon fill="#060E9F" points="74.316,44.494 74.316,47.446 73.214,47.446 73.214,42.467 74.245,42.467 76.08,45.419 
		76.08,42.467 77.183,42.467 77.183,47.446 76.151,47.446 74.316,44.494 	"/>
	<polygon fill="#060E9F" points="77.61,42.467 78.805,42.467 79.929,46.073 81.06,42.467 82.148,42.467 80.52,47.446 79.24,47.446 
		77.61,42.467 	"/>
	<polygon fill="#060E9F" points="82.576,42.467 86.048,42.467 86.048,43.427 83.679,43.427 83.679,44.473 85.691,44.473 
		85.691,45.433 83.679,45.433 83.679,46.486 86.048,46.486 86.048,47.446 82.576,47.446 82.576,42.467 	"/>
	<path fill="#060E9F" d="M88.801,45.532l-0.817-0.142c-0.854-0.15-1.366-0.641-1.366-1.423c0-1.06,0.732-1.572,1.913-1.572
		s1.913,0.513,1.913,1.516v0.12h-1.102v-0.12c0-0.37-0.299-0.556-0.812-0.556c-0.512,0-0.774,0.15-0.774,0.534
		c0,0.263,0.206,0.44,0.505,0.491l0.817,0.142c0.896,0.156,1.365,0.64,1.365,1.416c0,1.066-0.732,1.578-1.913,1.578
		s-1.913-0.512-1.913-1.515v-0.121h1.103v0.121c0,0.369,0.299,0.555,0.811,0.555c0.513,0,0.775-0.142,0.775-0.54
		C89.306,45.746,89.1,45.583,88.801,45.532L88.801,45.532z"/>
	<polygon fill="#060E9F" points="90.766,42.467 94.684,42.467 94.684,43.427 93.275,43.427 93.275,47.446 92.173,47.446 
		92.173,43.427 90.766,43.427 90.766,42.467 	"/>
	<polygon fill="#060E9F" points="95.147,42.467 96.25,42.467 96.25,47.446 95.147,47.446 95.147,42.467 	"/>
	<path fill="#060E9F" d="M97.766,41.151h0.945l0.32,0.498l0.32-0.498h0.917l-0.676,1.031h-1.151L97.766,41.151L97.766,41.151z
		 M101.002,45.668v0.042c0,1.195-0.783,1.807-1.992,1.807c-1.194,0-1.977-0.611-1.977-1.807v-1.508c0-1.194,0.782-1.807,1.991-1.807
		c1.194,0,1.978,0.612,1.978,1.807v0.043h-1.104v-0.043c0-0.562-0.348-0.847-0.874-0.847c-0.54,0-0.89,0.285-0.89,0.847v1.508
		c0,0.562,0.35,0.847,0.875,0.847c0.541,0,0.889-0.285,0.889-0.847v-0.042H101.002L101.002,45.668z"/>
	<polygon fill="#060E9F" points="102.816,44.494 102.816,47.446 101.714,47.446 101.714,42.467 102.746,42.467 104.58,45.419 
		104.58,42.467 105.683,42.467 105.683,47.446 104.651,47.446 102.816,44.494 	"/>
	<path fill="#060E9F" d="M106.581,42.183l0.583-1.031h1.145l-0.854,1.031H106.581L106.581,42.183z M106.538,42.467h1.102v4.979
		h-1.102V42.467L106.538,42.467z"/>
	<path fill="#060E9F" d="M112.67,45.532l-0.818-0.142c-0.854-0.15-1.365-0.641-1.365-1.423c0-1.06,0.732-1.572,1.913-1.572
		c1.18,0,1.913,0.513,1.913,1.516v0.12h-1.102v-0.12c0-0.37-0.299-0.556-0.812-0.556c-0.512,0-0.774,0.15-0.774,0.534
		c0,0.263,0.205,0.44,0.505,0.491l0.816,0.142c0.897,0.156,1.366,0.64,1.366,1.416c0,1.066-0.733,1.578-1.913,1.578
		c-1.181,0-1.913-0.512-1.913-1.515v-0.121h1.103v0.121c0,0.369,0.299,0.555,0.811,0.555c0.513,0,0.775-0.142,0.775-0.54
		C113.175,45.746,112.968,45.583,112.67,45.532L112.67,45.532z"/>
	<path fill="#060E9F" d="M116.127,44.828h0.911c0.37,0,0.604-0.171,0.604-0.704s-0.241-0.697-0.604-0.697h-0.911V44.828
		L116.127,44.828z M115.025,42.467h2.049c1.03,0,1.707,0.483,1.707,1.657s-0.669,1.664-1.707,1.664h-0.947v1.658h-1.102V42.467
		L115.025,42.467z"/>
	<path fill="#060E9F" d="M122.146,44.202c0-0.562-0.348-0.847-0.875-0.847c-0.54,0-0.889,0.285-0.889,0.847v1.508
		c0,0.562,0.349,0.847,0.875,0.847c0.541,0,0.889-0.285,0.889-0.847V44.202L122.146,44.202z M123.249,45.71
		c0,1.195-0.783,1.807-1.992,1.807c-1.195,0-1.978-0.611-1.978-1.807v-1.508c0-1.194,0.782-1.807,1.991-1.807
		c1.195,0,1.979,0.612,1.979,1.807V45.71L123.249,45.71z"/>
	<polygon fill="#060E9F" points="124.032,42.467 125.135,42.467 125.135,46.486 127.503,46.486 127.503,47.446 124.032,47.446 
		124.032,42.467 	"/>
	<polygon fill="#060E9F" points="128.073,42.467 131.544,42.467 131.544,43.427 129.176,43.427 129.176,44.473 131.188,44.473 
		131.188,45.433 129.176,45.433 129.176,46.486 131.544,46.486 131.544,47.446 128.073,47.446 128.073,42.467 	"/>
	<path fill="#060E9F" d="M132.918,41.151h0.946l0.319,0.498l0.32-0.498h0.917l-0.676,1.031h-1.152L132.918,41.151L132.918,41.151z
		 M136.153,45.668v0.042c0,1.195-0.782,1.807-1.991,1.807c-1.194,0-1.977-0.611-1.977-1.807v-1.508c0-1.194,0.782-1.807,1.991-1.807
		c1.194,0,1.977,0.612,1.977,1.807v0.043h-1.103v-0.043c0-0.562-0.347-0.847-0.874-0.847c-0.541,0-0.89,0.285-0.89,0.847v1.508
		c0,0.562,0.349,0.847,0.875,0.847c0.542,0,0.889-0.285,0.889-0.847v-0.042H136.153L136.153,45.668z"/>
	<polygon fill="#060E9F" points="137.969,44.494 137.969,47.446 136.866,47.446 136.866,42.467 137.897,42.467 139.732,45.419 
		139.732,42.467 140.835,42.467 140.835,47.446 139.804,47.446 137.969,44.494 	"/>
	<path fill="#060E9F" d="M144.485,44.202c0-0.562-0.349-0.847-0.875-0.847c-0.541,0-0.89,0.285-0.89,0.847v1.508
		c0,0.562,0.349,0.847,0.876,0.847c0.54,0,0.889-0.285,0.889-0.847V44.202L144.485,44.202z M145.587,45.71
		c0,1.195-0.781,1.807-1.99,1.807c-1.195,0-1.978-0.611-1.978-1.807v-1.508c0-1.194,0.782-1.807,1.991-1.807
		c1.195,0,1.977,0.612,1.977,1.807V45.71L145.587,45.71z"/>
	<path fill="#060E9F" d="M148.412,45.532l-0.817-0.142c-0.854-0.15-1.366-0.641-1.366-1.423c0-1.06,0.732-1.572,1.914-1.572
		c1.18,0,1.913,0.513,1.913,1.516v0.12h-1.103v-0.12c0-0.37-0.298-0.556-0.811-0.556s-0.775,0.15-0.775,0.534
		c0,0.263,0.206,0.44,0.504,0.491l0.818,0.142c0.896,0.156,1.366,0.64,1.366,1.416c0,1.066-0.733,1.578-1.913,1.578
		c-1.182,0-1.914-0.512-1.914-1.515v-0.121h1.103v0.121c0,0.369,0.299,0.555,0.812,0.555s0.775-0.142,0.775-0.54
		C148.918,45.746,148.711,45.583,148.412,45.532L148.412,45.532z"/>
	<polygon fill="#060E9F" points="150.376,42.467 154.295,42.467 154.295,43.427 152.888,43.427 152.888,47.446 151.784,47.446 
		151.784,43.427 150.376,43.427 150.376,42.467 	"/>
</g>
</svg>
