<?xml version="1.0" encoding="utf-8"?>
<!-- Generator: Adobe Illustrator 16.0.0, SVG Export Plug-In . SVG Version: 6.00 Build 0)  -->
<!DOCTYPE svg PUBLIC "-//W3C//DTD SVG 1.1//EN" "http://www.w3.org/Graphics/SVG/1.1/DTD/svg11.dtd">
<svg version="1.1" id="Vrstva_1" xmlns="http://www.w3.org/2000/svg" xmlns:xlink="http://www.w3.org/1999/xlink" x="0px" y="0px"
	 width="58px" height="43.5px" viewBox="0 0 58 43.5" enable-background="new 0 0 58 43.5" xml:space="preserve">
<path d="M53.167,38.667H4.834V19.333H0V43.5h58V19.333h-4.833V38.667z M0,0v8.395l29,23.728L58,8.395V0H0z M53.167,6.105L29,25.878
	L4.834,6.105V4.833h48.333V6.105z"/>
</svg>
