<?xml version="1.0" encoding="utf-8"?>
<!-- Generator: Adobe Illustrator 16.0.0, SVG Export Plug-In . SVG Version: 6.00 Build 0)  -->
<!DOCTYPE svg PUBLIC "-//W3C//DTD SVG 1.1//EN" "http://www.w3.org/Graphics/SVG/1.1/DTD/svg11.dtd">
<svg version="1.1" id="Vrstva_1" xmlns="http://www.w3.org/2000/svg" xmlns:xlink="http://www.w3.org/1999/xlink" x="0px" y="0px"
	 width="63px" height="63px" viewBox="0 0 63 63" enable-background="new 0 0 63 63" xml:space="preserve">
<path d="M42.522,38.85C48.562,35.176,52.5,28.613,52.5,21c0-11.551-9.449-21-21-21s-21,9.449-21,21
	c0,7.613,3.938,14.176,9.977,17.85C9.977,42.787,2.102,51.975,0,63h5.25C7.875,50.926,18.637,42,31.5,42s23.625,8.926,26.25,21H63
	C60.897,51.713,53.022,42.525,42.522,38.85 M15.75,21c0-8.662,7.085-15.75,15.75-15.75c8.664,0,15.75,7.088,15.75,15.75
	S40.164,36.75,31.5,36.75C22.835,36.75,15.75,29.662,15.75,21"/>
</svg>
