<?xml version="1.0" encoding="utf-8"?>
<!-- Generator: Adobe Illustrator 16.0.0, SVG Export Plug-In . SVG Version: 6.00 Build 0)  -->
<!DOCTYPE svg PUBLIC "-//W3C//DTD SVG 1.1//EN" "http://www.w3.org/Graphics/SVG/1.1/DTD/svg11.dtd">
<svg version="1.1" id="Vrstva_1" xmlns="http://www.w3.org/2000/svg" xmlns:xlink="http://www.w3.org/1999/xlink" x="0px" y="0px"
	 width="163.072px" height="185px" viewBox="0 0 163.072 185" enable-background="new 0 0 163.072 185" xml:space="preserve">
<path fill="#B51352" d="M89.828,69.375c-10.614,0-19.233,8.642-19.233,19.264v42.403h15.394V88.639c0-2.115,1.731-3.847,3.892-3.847
	c2.115,0,3.839,1.731,3.839,3.847V185h15.417V88.639C109.136,78.017,100.495,69.375,89.828,69.375 M143.809,69.375
	c-10.614,0-19.256,8.642-19.256,19.264V185h15.416V88.639c0-2.115,1.725-3.847,3.84-3.847s3.869,1.731,3.869,3.847v42.403h15.394
	V88.639C163.072,78.017,154.43,69.375,143.809,69.375 M147.678,30.833C147.678,13.828,133.85,0,116.844,0
	C99.839,0,86.011,13.828,86.011,30.833s13.828,30.834,30.833,30.834C133.85,61.667,147.678,47.838,147.678,30.833 M116.844,46.25
	c-8.498,0-15.416-6.91-15.416-15.417c0-8.506,6.918-15.416,15.416-15.416c8.499,0,15.417,6.91,15.417,15.416
	C132.261,39.34,125.343,46.25,116.844,46.25 M38.542,50.104v-25.7H25.7v25.7H0v12.85h25.7v25.691h12.842V62.954h25.699v-12.85
	H38.542z"/>
</svg>
