<?xml version="1.0" encoding="utf-8"?>
<!-- Generator: Adobe Illustrator 16.0.0, SVG Export Plug-In . SVG Version: 6.00 Build 0)  -->
<!DOCTYPE svg PUBLIC "-//W3C//DTD SVG 1.1//EN" "http://www.w3.org/Graphics/SVG/1.1/DTD/svg11.dtd">
<svg version="1.1" id="Vrstva_1" xmlns="http://www.w3.org/2000/svg" xmlns:xlink="http://www.w3.org/1999/xlink" x="0px" y="0px"
	 width="269px" height="100px" viewBox="0 0 269 100" enable-background="new 0 0 269 100" xml:space="preserve">
<g>
	<g>
		<defs>
			<path id="SVGID_11_" d="M154.075,60.366c-0.448,2.352-0.541,5.131-0.703,7.513c-0.064,1.445,2.132,1.741,2.31,0.202
				c0.116-0.835,1.04-4.052,1.901-5.409l0.025,0.091c0.383,1.88,0.634,3.736,1.425,5.475c0.609,1.383,2.737,0.454,2.127-0.883
				c-0.636-1.448-0.884-2.941-1.18-4.453c-0.246-1.109-0.52-2.989-2.104-2.989c-0.609,0-1.084,0.497-1.516,1.062
				c0.04-0.951-0.63-1.472-1.261-1.472C154.639,59.506,154.2,59.778,154.075,60.366z M109.232,60.727
				c0.182,1.923,0.587,4.819,0.587,6.767c0,2.011-1.038,5.318-2.852,5.318c-0.021,0-0.042,0-0.042,0.022c0,0.02,0,0.02-0.025,0
				c-0.023-0.068-0.023-0.159-0.023-0.298v-0.29c0-0.815-0.588-1.201-1.147-1.201c-0.569,0-1.155,0.386-1.155,1.201
				c0,0.926,0.132,2.938,2.394,2.938c3.782,0,5.163-5.065,5.163-7.691c0-2.038-0.432-5-0.611-6.993
				c-0.052-0.729-0.586-1.072-1.123-1.072C109.772,59.428,109.137,59.885,109.232,60.727z M101.928,64.1l0.112-0.701
				c0.27-0.07,0.475-0.204,0.587-0.317c0.093-0.091,0.115-0.068,0.342-0.565c0.452-0.298,1.242-0.838,1.9-0.817
				c0.563,0.025,0.68,0.679,0.61,1.221c-0.252,1.587-1.245,3.691-2.579,3.691C102.267,66.61,101.814,65.435,101.928,64.1z
				 M102.9,60.139c-0.367,0-1.021,0.089-1.583,0.409c-0.931,0.585-1.542,1.829-1.677,3.098c-0.021,0.228-0.044,0.454-0.044,0.792
				c0,2.127,1.062,4.526,3.326,4.526c2.557,0.048,4.705-3.643,4.957-6.153c0.133-1.584-0.615-3.466-2.583-3.466
				C104.641,59.345,103.828,59.643,102.9,60.139z M137.827,64.1l0.11-0.701c0.272-0.07,0.476-0.204,0.592-0.317
				c0.091-0.091,0.111-0.068,0.337-0.565c0.453-0.298,1.242-0.838,1.902-0.817c0.563,0.025,0.68,0.679,0.611,1.221
				c-0.248,1.587-1.246,3.691-2.579,3.691C138.166,66.61,137.711,65.435,137.827,64.1z M138.801,60.139
				c-0.364,0-1.021,0.089-1.586,0.409c-0.927,0.585-1.536,1.829-1.675,3.098c-0.024,0.228-0.044,0.454-0.044,0.792
				c0,2.127,1.061,4.526,3.323,4.526c2.561,0.048,4.709-3.643,4.958-6.153c0.136-1.584-0.611-3.466-2.584-3.466
				C140.541,59.345,139.726,59.643,138.801,60.139z M118.402,63.013c0,2.016,2.42,2.484,3.961,2.919
				c0.247,0.065,1.222,0.247,1.222,0.522c0,0.832-2.422,1.536-3.079,1.646c-0.11-0.042-0.177-0.065-0.203-0.065
				c-0.863-0.219-1.311,0.465-1.311,1.15c-0.012,0.734,0.487,1.466,1.514,1.09c1.653-0.315,5.387-1.428,5.387-3.98
				c0-2.039-3.099-2.399-4.547-2.944c-0.523-0.179-0.679-0.338-0.679-0.497c0-0.338,1.155-1.337,2.667-1.337
				c0.478,0.429,1.271,0.07,1.52-0.36c0.156-0.271,0.156-0.591,0.134-0.86c-0.028-0.666-0.687-0.969-1.575-0.969
				C121.463,59.327,118.402,60.772,118.402,63.013z M115.457,59.279c-1.15,0.065-1.087,2.215-1.087,2.918
				c-0.063,1.744-0.179,3.124-0.203,4.098c-0.021,1.152,0.159,1.92,0.433,2.192c0.541,0.588,2.447,0.292,1.901-1.38
				c-0.184-0.522-0.249-0.702-0.227-1.244c0.065-0.835,0.431-4.435,0.499-5.025c0.063-0.865-0.531-1.562-1.221-1.562
				C115.524,59.276,115.491,59.276,115.457,59.279z M164.253,65.818c0-1.628,0.587-3.101,1.72-4.254
				c0.203-0.204,0.404-0.32,0.495-0.366c0.045,0,0.091,0,0.181,0.028c0.115,0,0.297,0.018,0.389,0.018h0.223l-0.067,0.454
				c-0.065,0.499-0.135,1.087-0.293,1.607c-0.838,2.558-2.356,3.259-2.513,3.259C164.314,66.564,164.253,66.247,164.253,65.818z
				 M162.419,63.529c-0.274,0.82-0.43,1.604-0.43,2.809c0,1.133,0.45,2.828,2.012,2.828c0.883,0,2.084-0.817,3.126-2.036
				c0.291,1.269,0.767,2.49,1.672,2.49c0.52,0,1.201-0.205,1.201-1.02c0-0.182-0.045-0.454-0.226-0.744
				c-0.437-0.656-0.703-1.834-0.703-3.26c0-0.363,0-0.567,0.023-0.928c0.021-0.387,0.114-0.75,0.224-1.153
				c0.137-0.524,0.252-1.039,0.252-1.587c0-0.814-0.454-1.085-0.997-1.085c-0.203,0-0.385,0.022-0.52,0.068
				c-0.16-0.5-0.839-1.112-1.541-1.112C164.591,58.8,162.867,62.243,162.419,63.529z M151.406,58.666l-0.049,0.048
				c-1.242,1.582-2.626,4.049-3.506,6.267c-0.365-1.312-0.929-2.669-1.312-4.052c-0.318-0.429-0.768-0.656-1.131-0.656
				c-0.569,0-1.111,0.366-1.111,1.222L145,63.529c0.564,1.544,1.085,3.146,1.4,4.6c0.204,0.923,0.773,1.332,1.383,1.332
				c0.861,0,1.424-0.363,1.518-1.201c0.381-2.646,2.349-6.269,3.982-8.348c0.156-0.225,0.2-0.409,0.2-0.633
				c0-0.636-0.54-0.951-1.129-0.951C152.014,58.328,151.649,58.419,151.406,58.666z M115.707,55.272
				c-0.701,0.113-0.974,0.543-0.905,1.354c0.067,0.911,0.7,1.36,1.246,1.36c0.702,0,1.062-0.704,1.04-1.405
				c0-0.688-0.408-1.322-1.186-1.322C115.84,55.26,115.775,55.265,115.707,55.272z M109.662,55.043
				c-0.789,0.116-1.086,0.522-1.017,1.405c0.09,0.974,0.791,1.383,1.405,1.383c0.812,0,1.243-0.77,1.175-1.494
				c-0.064-0.693-0.514-1.302-1.346-1.302C109.812,55.035,109.735,55.041,109.662,55.043z M119.444,55.427
				c0,0.231,0.09,0.456,0.249,0.638c0.609,0.702,2.309,2.329,2.851,2.329c0.342,0,0.636-0.134,0.859-0.313
				c0.792-0.746,2.311-2.106,2.311-2.714c0-0.772-0.749-0.886-1.063-0.886c-0.702,0-1.404,0.996-2.084,1.584h-0.022
				c-0.158,0-1.086-1.312-1.108-1.334c-0.182-0.204-0.476-0.341-0.793-0.341C120.055,54.39,119.444,54.866,119.444,55.427z
				 M131.123,54.841c-0.568,1.429-1.019,2.899-1.336,4.322c-0.655,0.204-0.929,0.32-1.38,0.431c-0.112,0.023-0.994,0.25-0.994,0.272
				c-0.703,0.157-1.042,0.543-1.042,0.994c0,0.568,0.497,1.085,1.311,1.042h0.045c0.612-0.091,1.088-0.159,1.674-0.338
				c-0.135,1.198-0.2,2.419-0.2,3.663c0,1.042,0.047,2.104,0.134,3.121c0.227,0.569,0.727,0.865,1.177,0.865
				c0.501,0,1-0.318,1.133-0.977c-0.091-0.951-0.133-1.923-0.133-2.941c0-1.445,0.11-2.941,0.337-4.458
				c0.612-0.179,1.243-0.338,2.057-0.518c0.203-0.024,0.434-0.07,0.615-0.182c0.134-0.024,0.155-0.093,0.224-0.161
				c0.75-0.971-0.046-1.649-0.858-1.738c-0.431,0-1.04,0.089-1.565,0.199c0.251-0.994,0.614-2.013,1.042-3.072
				c0.119-0.84-0.497-1.292-1.129-1.292C131.825,54.074,131.327,54.412,131.123,54.841z M93.961,57.062
				c0.112-0.435,0.272-0.792,0.474-1.34c0.794-0.111,1.336-0.156,1.971-0.156h0.816c0.383,0,0.743,0.045,1.129,0.116
				c0.543,0.065,1.065,0.11,0.973,0.474c-0.293,1.065-2.918,2.307-5.858,3.328C93.62,58.419,93.803,57.626,93.961,57.062z
				 M89.706,55.229c-1.336,1.085,0.114,2.803,1.448,1.719c0.16-0.116,0.272-0.228,0.476-0.344c-0.384,1.203-0.566,2.49-0.747,3.691
				l-0.294,0.093c-0.656,0.202-1.018,0.768-1.018,1.289c0,0.52,0.341,0.994,1.063,0.994c-0.114,1.698-0.182,5.229,0.227,6.902
				c0.432,1.789,2.396,0.84,2.649-0.454c0.087-0.358-0.116-0.562-0.274-0.835c-0.386-0.749-0.112-5.272-0.112-6.27
				c3.369-1.017,7.737-2.626,8.578-5.567c0.472-1.607-0.407-2.467-1.538-2.828c-1.09-0.341-2.268-0.341-3.418-0.341
				C94.662,53.279,91.969,53.373,89.706,55.229z M134.426,51.897c-1.017,1.135,0.139,1.609,0.317,2.288
				c0.043,0.179,0,0.456-0.136,0.636c-0.069,0.159-0.589,0.633-0.5,1.334c0.069,0.339,0.115,0.361,0.364,0.565
				c0.341,0.25,0.771,0.156,1.154-0.204c0.452-0.406,1.109-1.403,1.109-2.263c0-0.906-0.067-1.653-0.431-2.218
				c-0.216-0.315-0.599-0.444-0.973-0.444C134.957,51.592,134.598,51.721,134.426,51.897z"/>
		</defs>
		<clipPath id="SVGID_2_">
			<use xlink:href="#SVGID_11_"  overflow="visible"/>
		</clipPath>
		<linearGradient id="SVGID_4_" gradientUnits="userSpaceOnUse" x1="89.9707" y1="63.3887" x2="170" y2="63.3887">
			<stop  offset="0" style="stop-color:#009FE3"/>
			<stop  offset="0.41" style="stop-color:#0068A1"/>
			<stop  offset="1" style="stop-color:#003865"/>
		</linearGradient>
		<rect x="88.37" y="51.592" clip-path="url(#SVGID_2_)" fill="url(#SVGID_4_)" width="81.63" height="23.593"/>
	</g>
	<path fill="#009FE3" d="M45.568,45.242c5.644,0,10.219-4.574,10.219-10.212c0-5.641-4.575-10.215-10.219-10.215
		c-5.636,0-10.211,4.574-10.211,10.215C35.357,40.667,39.933,45.242,45.568,45.242"/>
	<path fill="#009FE3" d="M53.105,43.296c-1.943,2.106-5.379,4.217-9.778,4.217c-3.417,0-6.362-1.33-8.229-2.804
		C23.94,45.885,15.653,47.54,15.653,47.54v4.514l59.098-0.008l0.004-9.31C74.755,42.736,64.674,42.676,53.105,43.296"/>
	<path fill="#003865" d="M28.715,61.193c0,3.862,3.169,4.531,5.491,5.016c1.246,0.26,2.231,0.472,2.231,1.064
		c0,0.615-1.199,0.84-2.323,0.84c-1.708,0-3.516-0.365-4.972-0.983l-0.281-0.119v4.388l0.161,0.04
		c2.123,0.502,3.951,0.717,6.101,0.717c2.211,0,7.354-0.513,7.354-5.275c0-3.853-3.188-4.485-5.517-4.949
		c-1.231-0.24-2.206-0.437-2.206-0.997c0-0.701,1.126-0.8,2.221-0.8c1.453,0,2.936,0.266,4.289,0.75l0.266,0.101v-4.337
		l-0.156-0.027c-1.598-0.344-3.339-0.527-4.901-0.527C31.325,56.093,28.715,57.808,28.715,61.193"/>
	<path fill="#003865" d="M42.942,64.12c0,5.189,2.962,8.035,8.347,8.035c5.419,0,8.407-2.846,8.407-8.035
		c0-5.104-3.066-8.027-8.407-8.027C45.979,56.093,42.942,59.017,42.942,64.12 M49.231,64.12c0-2.639,0.69-3.986,2.058-3.986
		c1.84,0,2.086,2.283,2.11,3.994c-0.024,1.922-0.208,3.98-2.11,3.98C49.904,68.108,49.231,66.807,49.231,64.12z"/>
	<path fill="#003865" d="M60.881,56.353h-0.195V71.9h8.726c3.238,0,6.235-0.535,6.235-4.415c0-1.393-1.05-2.969-2.836-3.494
		c1.745-0.641,2.563-1.836,2.563-3.703c0-2.541-1.867-3.936-5.25-3.936H60.881z M67.706,65.664c1.335,0,1.903,0.403,1.903,1.347
		c0,1.27-1.489,1.36-1.95,1.36h-1.271v-2.707H67.706z M67.725,59.617c1.152,0,1.733,0.429,1.733,1.276
		c0,1.034-1.011,1.249-1.863,1.249h-1.207v-2.525H67.725z"/>
	<path fill="#003865" d="M60.881,56.353h-0.195V71.9h8.726c3.238,0,6.235-0.535,6.235-4.415c0-1.393-1.05-2.969-2.836-3.494
		c1.745-0.641,2.563-1.836,2.563-3.703c0-2.541-1.867-3.936-5.25-3.936H60.881z M67.706,65.664c1.335,0,1.903,0.406,1.903,1.347
		c0,1.27-1.489,1.36-1.95,1.36h-1.271v-2.707H67.706z M67.725,59.617c1.152,0,1.733,0.429,1.733,1.276
		c0,1.034-1.011,1.251-1.863,1.251h-1.207v-2.527H67.725z"/>
	<path fill="#003865" d="M19.602,53.585l-1.76,1.612l0.128,0.105c0.05,0.043,1.032,0.86,2.64,1.302
		C17.08,57.646,15,60.333,15,63.905c0,5.063,3.427,8.207,8.948,8.207c1.817,0,3.582-0.47,4.083-0.61l0.106-0.038v-4.342l-0.199,0.07
		c-1.104,0.389-2.053,0.575-3,0.575c-2.423,0-3.871-1.41-3.871-3.776c0-2.245,1.556-3.641,4.058-3.641
		c0.946,0,1.894,0.266,2.779,0.556l0.198,0.065v-4.326l-0.427-0.086c-0.761-0.139-1.397-0.255-2.075-0.331
		c1.224-0.542,2.032-1.278,2.431-1.713l0.115-0.121l-0.677-0.507l-0.093,0.099c-0.016,0.015-1.276,1.362-3.609,1.345
		c-2.483-0.028-3.929-1.726-3.945-1.738l-0.104-0.124L19.602,53.585z"/>
</g>
</svg>
